[

{
  "events":[
    "SpaceX launches two astronauts into space for first time",
    "102-year-old woman survives the virus twice",
    "Police officer receives life-saving transplant from woman he put in jail 8 years ago",
    "Single foster dad adopts five siblings so they can all stay together",
    "A dog finds his forever home after spending 729 days in shelter",
    "Congo discharged its last Ebola patient",
    "Finland moved to give new dads time off with their newborns",
    "Dogs trained to protect wildlife have saved 45 rhinos from poachers in South Africa",
    "People around the world rose up to protest police violence and racial injustice",
    "Polio was officially eradicated on the African continent",
    "Scotland became the first country to make period products free",
    "Drive-in movie theaters made a comeback",
    "Amazon introduced fun new boxes that can be turned into a cat fort or robot costume",
    "Barcelona’s Gran Teatre del Liceu opera house held a concert for an audience of houseplants",
    "Puzzles and board games became cool again",
    "NASA named its Washington, D.C. headquarters after Mary W. Jackson, its first Black female engineer",
    "People worldwide banded together to aid in Australian bushfire relief",
    "Parasite became the first non-English-language film to take Hollywood's top prize",
    "The record for most money raised by charity walk was broken. (£27,699,581).",
    "IKEA shared its beloved Swedish meatball recipe with the world"

  ]
}
]
